<?xml version="1.0" encoding="utf-8"?>
<!-- Generator: Adobe Illustrator 23.0.3, SVG Export Plug-In . SVG Version: 6.00 Build 0)  -->
<svg version="1.1" xmlns="http://www.w3.org/2000/svg" xmlns:xlink="http://www.w3.org/1999/xlink" x="0px" y="0px" viewBox="0 0 1280 1080" style="enable-background:new 0 0 1280 1080;" xml:space="preserve">
<style type="text/css">
	@import url('https://fonts.googleapis.com/css?family=Noto+Sans:normal,b');
	.st0{opacity:0;}
	.st1{fill:#FF0000;}
	.st2{fill:#231F20;}
	.st3{fill:none;stroke:#767576;stroke-width:2;stroke-linecap:round;stroke-miterlimit:10;}
	.st4{fill:#FCFCFC;}
	.st5{fill:none;stroke:#767576;stroke-width:2;stroke-linecap:round;stroke-miterlimit:10;stroke-dasharray:19.6474,0,0,19.6474;}
	
		.st6{fill:none;stroke:#767576;stroke-width:2;stroke-linecap:round;stroke-miterlimit:10;stroke-dasharray:0,0,19.6474,0,0,19.6474;}
	.st7{fill:#FFEFE4;stroke:#F26C21;stroke-width:3;stroke-miterlimit:10;}
	.st8{fill:#EEF4EA;stroke:#4CA847;stroke-width:3;stroke-miterlimit:10;}
	.st9{fill:#FCEEF4;stroke:#E83793;stroke-width:3;stroke-miterlimit:10;}
	.st10{fill:#FCFCFC;stroke:#767576;stroke-width:2;stroke-miterlimit:10;}
	.st11{fill:none;stroke:#F26C21;stroke-width:3;stroke-miterlimit:10;}
	.st12{fill:none;stroke:#4CA847;stroke-width:3;stroke-miterlimit:10;}
	.st13{fill:none;stroke:#E83793;stroke-width:3;stroke-miterlimit:10;}
	.st14{font-family:'Noto Sans';font-weight:bold;}
	.st15{font-size:12px;}
	.st16{font-family:'Noto Sans';font-weight:normal;}
	.st17{font-size:6px;}
	.st18{font-size:14px;}
	.st19{font-size:10px;}
	.st20{font-family:'arial';font-weight:bold;}
	.st21{letter-spacing:32;}
	.st22{font-family:'arial';font-weight:normal;}
	.st23{fill:#FFFFFF;stroke:#767576;stroke-width:2;stroke-miterlimit:10;}
</style>
<g id="BG" class="st0">
	<rect class="st1" width="1280" height="1080"/>
</g>
<g id="PALS">
	<g id="PALS_x5F_PediatricSepticShockAlgorithm">
		<polygon class="st2" points="612.2,211.7 608.2,218.6 604.2,211.7 607.2,211.7 607.2,198.5 609.2,198.5 609.2,211.7 		"/>
		<polygon class="st2" points="471.7,447 467.7,453.9 463.7,447 466.7,447 466.7,421.9 468.7,421.9 468.7,447 		"/>
		<polygon class="st2" points="336.4,497.5 329.5,493.5 336.4,489.5 336.4,492.5 362.5,492.5 362.5,494.5 336.4,494.5 		"/>
		<polygon class="st2" points="745.3,559.5 741.3,566.4 737.3,559.5 740.3,559.5 740.3,543.4 742.3,543.4 742.3,559.5 		"/>
		<polygon class="st2" points="578.4,721.1 585.3,725.1 578.4,729.1 578.4,726.1 449.2,726.1 449.2,724.1 578.4,724.1 		"/>
		<polygon class="st2" points="371.5,773.5 367.5,780.4 363.5,773.5 366.5,773.5 366.5,751.4 368.5,751.4 368.5,773.5 		"/>
		<polygon class="st2" points="695.1,773.5 691.1,780.4 687.1,773.5 690.1,773.5 690.1,752.4 692.1,752.4 692.1,773.5 		"/>
		<path class="st2" d="M940,868.5l-4,6.9l-4-6.9h3V735.6c0-5.2-4.3-9.5-9.5-9.5H787.9v-2h137.6c6.3,0,11.5,5.2,11.5,11.5v132.8H940z
			"/>
		<polygon class="st2" points="599.9,489.5 606.8,493.5 599.9,497.5 599.9,494.5 572.7,494.5 572.7,492.5 599.9,492.5 		"/>
		<polygon class="st2" points="371.5,687.7 367.5,694.6 363.5,687.7 366.5,687.7 366.5,677.5 368.5,677.5 368.5,687.7 		"/>
		<polygon class="st2" points="695.6,868.5 691.6,875.4 687.6,868.5 690.6,868.5 690.6,858.4 692.6,858.4 692.6,868.5 		"/>
		<polygon class="st2" points="372,868.5 368,875.4 364,868.5 367,868.5 367,858.4 369,858.4 369,868.5 		"/>
		<path class="st3" d="M1182.7,555.9h32.5c10.9,0,19.8-8.9,19.8-19.8V45.5c0-10.8-8.7-19.5-19.5-19.5h-1106C98.7,26,90,34.7,90,45.5
			v491.2c0,10.6,8.6,19.2,19.2,19.2H141"/>
		<g>
			<g>
				<line class="st3" x1="161" y1="555.9" x2="161" y2="555.9"/>
				<line class="st5" x1="161" y1="555.9" x2="189.5" y2="555.9"/>
				<line class="st6" x1="200.3" y1="555.9" x2="1172.8" y2="555.9"/>
				<line class="st3" x1="1182.7" y1="555.9" x2="1182.7" y2="555.9"/>
			</g>
		</g>
		<path id="shape06_105_" class="st7" d="M923.2,191h-631c-5.2,0-9.5-4.3-9.5-9.5v-125c0-5.2,4.3-9.5,9.5-9.5h631
			c5.2,0,9.5,4.3,9.5,9.5v125C932.7,186.7,928.4,191,923.2,191z"/>
		<path id="shape06_104_" class="st8" d="M926.6,421.9H288.7c-3.3,0-6.1-2.7-6.1-6.1V228.9c0-3.3,2.7-6.1,6.1-6.1h637.9
			c3.3,0,6.1,2.7,6.1,6.1v186.9C932.7,419.1,930,421.9,926.6,421.9z"/>
		<path class="st9" d="M393.4,460.7l-29.9,29.5c-1.8,1.7-1.8,4.6,0,6.3l29.9,29.6c0.8,0.8,2,1.3,3.2,1.3h71h71
			c1.2,0,2.3-0.5,3.2-1.3l30.2-29.6c1.8-1.7,1.8-4.6,0-6.3l-30.2-29.5c-0.8-0.8-1.9-1.3-3.1-1.3l-71.1,0l-71.1,0
			C395.4,459.4,394.2,459.9,393.4,460.7z"/>
		<path id="shape06_103_" class="st8" d="M315.8,518.3H201.2c-4.2,0-7.7-3.4-7.7-7.7v-33.5c0-4.2,3.4-7.7,7.7-7.7h114.7
			c4.2,0,7.7,3.4,7.7,7.7v33.5C323.5,514.8,320.1,518.3,315.8,518.3z"/>
		<path class="st9" d="M311.3,700l-23,22.7c-1.4,1.3-1.4,3.5,0,4.9l23.1,22.8c0.6,0.6,1.5,1,2.4,1h54.7h54.6c0.9,0,1.8-0.4,2.4-1
			l23.2-22.8c1.4-1.3,1.4-3.5,0-4.9l-23.2-22.7c-0.6-0.6-1.4-1-2.4-1l-54.7,0l-54.7,0C312.8,698.9,311.9,699.3,311.3,700z"/>
		<path class="st9" d="M618.7,699.3L595,722.6c-1.4,1.4-1.4,3.6,0,5l23.7,23.4c0.7,0.7,1.6,1,2.5,1h76.1h63.6c0.9,0,1.8-0.4,2.5-1
			l23.8-23.4c1.4-1.4,1.4-3.6,0-5l-23.8-23.3c-0.7-0.6-1.5-1-2.4-1l-63.7,0l-76.2,0C620.2,698.2,619.3,698.6,618.7,699.3z"/>
		<path id="shape06_102_" class="st7" d="M786.1,858.4H597.2c-5.3,0-9.6-4.3-9.6-9.6v-54.9c0-5.3,4.3-9.6,9.6-9.6h188.9
			c5.3,0,9.6,4.3,9.6,9.6v54.9C795.6,854.1,791.3,858.4,786.1,858.4z"/>
		<path id="shape06_101_" class="st7" d="M462.4,858.4H273.5c-5.3,0-9.6-4.3-9.6-9.6v-54.9c0-5.3,4.3-9.6,9.6-9.6h188.9
			c5.3,0,9.6,4.3,9.6,9.6v54.9C472,854.1,467.7,858.4,462.4,858.4z"/>
		<path id="shape06_100_" class="st8" d="M1195.6,543.4H621c-4.2,0-7.7-3.4-7.7-7.7v-84.5c0-4.2,3.4-7.7,7.7-7.7h574.7
			c4.2,0,7.7,3.4,7.7,7.7v84.5C1203.3,539.9,1199.8,543.4,1195.6,543.4z"/>
		<path id="shape06_99_" class="st8" d="M900,677.5H335.3c-4.2,0-7.7-3.4-7.7-7.7v-91.5c0-4.2,3.4-7.7,7.7-7.7H900
			c4.2,0,7.7,3.4,7.7,7.7v91.5C907.7,674.1,904.2,677.5,900,677.5z"/>
		<path id="shape06_98_" class="st8" d="M522.4,1055.6H213.5c-5.3,0-9.6-4.3-9.6-9.6l0-156.9c0-5.3,4.3-9.6,9.6-9.6h308.9
			c5.3,0,9.6,4.3,9.6,9.6v156.9C532,1051.3,527.7,1055.6,522.4,1055.6z"/>
		<path id="shape06_97_" class="st8" d="M821.1,1012.6H562.2c-5.3,0-9.6-4.3-9.6-9.6V889.2c0-5.3,4.3-9.6,9.6-9.6h258.9
			c5.3,0,9.6,4.3,9.6,9.6v113.9C830.6,1008.3,826.3,1012.6,821.1,1012.6z"/>
		<path id="shape06_96_" class="st8" d="M1010.1,983.6H861.2c-5.3,0-9.6-4.3-9.6-9.6v-84.9c0-5.3,4.3-9.6,9.6-9.6h148.9
			c5.3,0,9.6,4.3,9.6,9.6v84.9C1019.6,979.3,1015.3,983.6,1010.1,983.6z"/>
		<path id="shape06_95_" class="st10" d="M122.5,288.9h-65c-8.3,0-15-6.8-15-15v0c0-8.3,6.8-15,15-15h65c8.3,0,15,6.8,15,15v0
			C137.5,282.2,130.8,288.9,122.5,288.9z"/>
		<path id="shape06_94_" class="st11" d="M923.2,191h-631c-5.2,0-9.5-4.3-9.5-9.5v-125c0-5.2,4.3-9.5,9.5-9.5h631
			c5.2,0,9.5,4.3,9.5,9.5v125C932.7,186.7,928.4,191,923.2,191z"/>
		<path id="shape06_93_" class="st12" d="M926.6,421.9H288.7c-3.3,0-6.1-2.7-6.1-6.1V228.9c0-3.3,2.7-6.1,6.1-6.1h637.9
			c3.3,0,6.1,2.7,6.1,6.1v186.9C932.7,419.1,930,421.9,926.6,421.9z"/>
		<path class="st13" d="M393.4,460.7l-29.9,29.5c-1.8,1.7-1.8,4.6,0,6.3l29.9,29.6c0.8,0.8,2,1.3,3.2,1.3h71h71
			c1.2,0,2.3-0.5,3.2-1.3l30.2-29.6c1.8-1.7,1.8-4.6,0-6.3l-30.2-29.5c-0.8-0.8-1.9-1.3-3.1-1.3l-71.1,0l-71.1,0
			C395.4,459.4,394.2,459.9,393.4,460.7z"/>
		<path id="shape06_92_" class="st12" d="M315.8,518.3H201.2c-4.2,0-7.7-3.4-7.7-7.7v-33.5c0-4.2,3.4-7.7,7.7-7.7h114.7
			c4.2,0,7.7,3.4,7.7,7.7v33.5C323.5,514.8,320.1,518.3,315.8,518.3z"/>
		<path class="st13" d="M311.3,700l-23,22.7c-1.4,1.3-1.4,3.5,0,4.9l23.1,22.8c0.6,0.6,1.5,1,2.4,1h54.7h54.6c0.9,0,1.8-0.4,2.4-1
			l23.2-22.8c1.4-1.3,1.4-3.5,0-4.9l-23.2-22.7c-0.6-0.6-1.4-1-2.4-1l-54.7,0l-54.7,0C312.8,698.9,311.9,699.3,311.3,700z"/>
		<path class="st13" d="M618.7,699.3L595,722.6c-1.4,1.4-1.4,3.6,0,5l23.7,23.4c0.7,0.7,1.6,1,2.5,1h76.1h63.6c0.9,0,1.8-0.4,2.5-1
			l23.8-23.4c1.4-1.4,1.4-3.6,0-5l-23.8-23.3c-0.7-0.6-1.5-1-2.4-1l-63.7,0l-76.2,0C620.2,698.2,619.3,698.6,618.7,699.3z"/>
		<path id="shape06_91_" class="st11" d="M786.1,858.4H597.2c-5.3,0-9.6-4.3-9.6-9.6v-54.9c0-5.3,4.3-9.6,9.6-9.6h188.9
			c5.3,0,9.6,4.3,9.6,9.6v54.9C795.6,854.1,791.3,858.4,786.1,858.4z"/>
		<path id="shape06_90_" class="st11" d="M462.4,858.4H273.5c-5.3,0-9.6-4.3-9.6-9.6v-54.9c0-5.3,4.3-9.6,9.6-9.6h188.9
			c5.3,0,9.6,4.3,9.6,9.6v54.9C472,854.1,467.7,858.4,462.4,858.4z"/>
		<path id="shape06_89_" class="st12" d="M1195.6,543.4H621c-4.2,0-7.7-3.4-7.7-7.7v-84.5c0-4.2,3.4-7.7,7.7-7.7h574.7
			c4.2,0,7.7,3.4,7.7,7.7v84.5C1203.3,539.9,1199.8,543.4,1195.6,543.4z"/>
		<path id="shape06_88_" class="st12" d="M900,677.5H335.3c-4.2,0-7.7-3.4-7.7-7.7v-91.5c0-4.2,3.4-7.7,7.7-7.7H900
			c4.2,0,7.7,3.4,7.7,7.7v91.5C907.7,674.1,904.2,677.5,900,677.5z"/>
		<path id="shape06_87_" class="st12" d="M522.4,1055.6H213.5c-5.3,0-9.6-4.3-9.6-9.6l0-156.9c0-5.3,4.3-9.6,9.6-9.6h308.9
			c5.3,0,9.6,4.3,9.6,9.6v156.9C532,1051.3,527.7,1055.6,522.4,1055.6z"/>
		<path id="shape06_86_" class="st12" d="M821.1,1012.6H562.2c-5.3,0-9.6-4.3-9.6-9.6V889.2c0-5.3,4.3-9.6,9.6-9.6h258.9
			c5.3,0,9.6,4.3,9.6,9.6v113.9C830.6,1008.3,826.3,1012.6,821.1,1012.6z"/>
		<path id="shape06_85_" class="st12" d="M1010.1,983.6H861.2c-5.3,0-9.6-4.3-9.6-9.6v-84.9c0-5.3,4.3-9.6,9.6-9.6h148.9
			c5.3,0,9.6,4.3,9.6,9.6v84.9C1019.6,979.3,1015.3,983.6,1010.1,983.6z"/>
		<path id="shape06_84_" class="st10" d="M122.5,288.9h-65c-8.3,0-15-6.8-15-15v0c0-8.3,6.8-15,15-15h65c8.3,0,15,6.8,15,15v0
			C137.5,282.2,130.8,288.9,122.5,288.9z"/>
		<text transform="matrix(1 0 0 1 292.4609 262.9239)"><tspan x="0" y="0" class="st2 st14 st15">• </tspan><tspan x="7.6" y="0" class="st2 st16 st15">Monitor and support </tspan><tspan x="128.2" y="0" class="st2 st14 st15">airway, breathing, </tspan><tspan x="241.6" y="0" class="st2 st16 st15">and </tspan><tspan x="266.2" y="0" class="st2 st14 st15">circulation </tspan><tspan x="0" y="14.4" class="st2 st14 st15">• </tspan><tspan x="7.6" y="14.4" class="st2 st16 st15">Monitor heart rate, blood pressure, and pulse oximetry </tspan><tspan x="0" y="28.8" class="st2 st14 st15">•</tspan><tspan x="4.5" y="28.8" class="st2 st16 st15"> Establish vascular access (IV or IO); draw blood for culture and additional laboratory studies, including glucose </tspan><tspan x="0" y="43.2" class="st2 st16 st15">  </tspan><tspan x="6.2" y="43.2" class="st2 st16 st17"> </tspan><tspan x="7.8" y="43.2" class="st2 st16 st15">and calcium—do not delay antibiotic or fluid therapy </tspan><tspan x="0" y="57.6" class="st2 st14 st15">• Antibiotics: </tspan><tspan x="78.9" y="57.6" class="st2 st16 st15">Give broad-spectrum antibiotics </tspan><tspan x="0" y="72" class="st2 st14 st15">• Fluid boluses: </tspan><tspan x="92.3" y="72" class="st2 st16 st15">Give 20 mL/kg isotonic crystalloid boluses (10 mL/kg for neonates and those with pre-existing </tspan><tspan x="0" y="86.4" class="st2 st16 st15">  </tspan><tspan x="6.2" y="86.4" class="st2 st16 st17"> </tspan><tspan x="7.8" y="86.4" class="st2 st16 st15">cardiovascular compromise). Assess carefully after each bolus. Repeat as needed to treat shock. Stop if rales, </tspan><tspan x="0" y="100.8" class="st2 st16 st15">  </tspan><tspan x="6.2" y="100.8" class="st2 st16 st17"> </tspan><tspan x="7.8" y="100.8" class="st2 st16 st15">respiratory distress, or hepatomegaly develops. </tspan><tspan x="0" y="115.2" class="st2 st14 st15">• </tspan><tspan x="7.6" y="115.2" class="st2 st16 st15">Give antipyretics if needed</tspan></text>
		<text transform="matrix(1 0 0 1 390.387 492.8373)"><tspan x="0" y="0" class="st14 st15">Do signs of shock persist? </tspan><tspan x="32.8" y="14.4" class="st16 st15">(see box above) </tspan></text>
		<text transform="matrix(1 0 0 1 211.8632 490.794)"><tspan x="0" y="0" class="st2 st16 st15">Consider critical </tspan><tspan x="-2" y="14.4" class="st2 st16 st15">care consultation</tspan></text>
		<text transform="matrix(1 0 0 1 292.4612 103.4405)"><tspan x="0" y="0" class="st2 st14 st15">• </tspan><tspan x="7.6" y="0" class="st2 st16 st15">Altered </tspan><tspan x="51.7" y="0" class="st2 st14 st15">mental status</tspan><tspan x="135.2" y="0" class="st2 st16 st15"> (irritability or decreased level of consciousness) </tspan><tspan x="0" y="14.4" class="st2 st14 st15">• </tspan><tspan x="7.6" y="14.4" class="st2 st16 st15">Altered </tspan><tspan x="51.7" y="14.4" class="st2 st14 st15">heart rate</tspan><tspan x="112.7" y="14.4" class="st2 st16 st15"> (tachycardia or, less commonly, bradycardia) </tspan><tspan x="0" y="28.8" class="st2 st14 st15">• </tspan><tspan x="7.6" y="28.8" class="st2 st16 st15">Altered </tspan><tspan x="51.7" y="28.8" class="st2 st14 st15">temperature</tspan><tspan x="128.8" y="28.8" class="st2 st16 st15"> (fever or hypothermia) </tspan><tspan x="0" y="43.2" class="st2 st14 st15">• </tspan><tspan x="7.6" y="43.2" class="st2 st16 st15">Altered </tspan><tspan x="51.7" y="43.2" class="st2 st14 st15">perfusion</tspan><tspan x="109.3" y="43.2" class="st2 st16 st15"> (prolonged or “flash” capillary refill; cool or very warm extremities; plethoric appearance, </tspan><tspan x="0" y="57.6" class="st2 st16 st15">  mottled color or pallor; possible ecchymosis or purpura; decreased urine output) </tspan><tspan x="0" y="72" class="st2 st14 st15">• Hypotension:</tspan><tspan x="87.2" y="72" class="st2 st16 st15"> May or may not be present</tspan></text>
		<text transform="matrix(1 0 0 1 539.6667 244)" class="st2 st14 st18">Initial Stabilization </text>
		<text transform="matrix(1 0 0 1 506.3608 69.2809)"><tspan x="0" y="0" class="st2 st14 st18">Identify Signs of Septic Shock </tspan><tspan x="30.4" y="14.4" class="st2 st16 st15">(as below or per protocol) </tspan></text>
		<text transform="matrix(1 0 0 1 292.4609 396)"><tspan x="0" y="0" class="st2 st14 st15">Goals of therapy:</tspan><tspan x="102" y="0" class="st2 st16 st15"> Improved mental status, normalization of heart rate and temperature, adequate systolic and </tspan><tspan x="0" y="14.4" class="st2 st16 st15">diastolic blood pressure, improved perfusion (see box above)</tspan></text>
		<text transform="matrix(1 0 0 1 325.5452 728.5236)" class="st14 st15">Is Scv</text>
		<text transform="matrix(1 0 0 1 358.9046 728.5236)" class="st14 st19">O</text>
		<text transform="matrix(0.583 0 0 0.583 366.8646 732.5197)" class="st14 st15">2</text>
		<text transform="matrix(1 0 0 1 370.866 728.5236)" class="st14 st15"> </text>
		<text transform="matrix(1 0 0 1 373.9861 728.5236)" class="st20 st15">≥</text>
		<text transform="matrix(1 0 0 1 381.1385 728.5236)" class="st14 st15">70%?</text>
		<text transform="matrix(1 0 0 1 618.6961 728.5239)" class="st14 st15">Signs of shock resolved?</text>
		<text transform="matrix(1 0 0 1 655.3182 803.0918)" class="st2 st14 st15">Scv</text>
		<text transform="matrix(1 0 0 1 674.9257 803.0918)" class="st2 st14 st19">O</text>
		<text transform="matrix(0.583 0 0 0.583 682.8856 807.0879)" class="st2 st14 st15">2</text>
		<text transform="matrix(1 0 0 1 686.8876 803.0918)" class="st2 st14 st15"> </text>
		<text transform="matrix(1 0 0 1 690.0077 803.0918)" class="st2 st20 st15">≥</text>
		<text transform="matrix(1 0 0 1 697.1591 803.0918)" class="st2 st14 st15">70%</text>
		<text transform="matrix(1 0 0 1 721.6991 803.0918)" class="st2 st16 st15">  </text>
		<text transform="matrix(1 0 0 1 602.1757 817.4922)" class="st2 st16 st15">With poor perfusion and </text>
		<text transform="matrix(1 0 0 1 743.2098 817.4922)" class="st2 st14 st15">warm</text>
		<text transform="matrix(1 0 0 1 777.9618 817.4922)" class="st2 st16 st15"> </text>
		<text transform="matrix(1 0 0 1 636.0575 831.8916)" class="st2 st16 st15">extremities despite </text>
		<text transform="matrix(1 0 0 1 604.618 846.292)" class="st2 st16 st15">norepinephrine administration</text>
		<text transform="matrix(1 0 0 1 333.367 803.0918)" class="st2 st14 st15">Scv</text>
		<text transform="matrix(1 0 0 1 352.9744 803.0918)" class="st2 st14 st19">O</text>
		<text transform="matrix(0.583 0 0 0.583 360.9344 807.0879)" class="st2 st14 st15">2</text>
		<text transform="matrix(1 0 0 1 364.9363 803.0918)" class="st2 st14 st15"> &lt;70%</text>
		<text transform="matrix(1 0 0 1 399.4598 803.0918)" class="st2 st16 st15"> </text>
		<text transform="matrix(1 0 0 1 283.4705 817.4922)" class="st2 st16 st15">With poor perfusion and </text>
		<text transform="matrix(1 0 0 1 424.5047 817.4922)" class="st2 st14 st15">cold</text>
		<text transform="matrix(1 0 0 1 449.3563 817.4922)" class="st2 st16 st15"> </text>
		<text transform="matrix(1 0 0 1 276.6126 831.8916)" class="st2 st16 st15">extremities despite epinephrine </text>
		<text transform="matrix(1 0 0 1 326.5682 846.292)" class="st2 st16 st15">administration</text>
		<text transform="matrix(1 0 0 1 618.6436 461.2472)"><tspan x="0" y="0" class="st2 st14 st15">•</tspan><tspan x="4.5" y="0" class="st2 st16 st15"> Obtain expert/critical care consultation </tspan><tspan x="0" y="14.4" class="st2 st14 st15">•</tspan><tspan x="4.5" y="14.4" class="st2 st16 st15"> Initiate and titrate </tspan><tspan x="112.9" y="14.4" class="st2 st14 st15">vasoactive drugs: </tspan><tspan x="0" y="28.8" class="st2 st16 st15 st21">	</tspan><tspan x="36" y="28.8" class="st2 st14 st15">–  Cold extremities, delayed capillary refill, and/or low blood pressure: </tspan><tspan x="0" y="43.2" class="st2 st16 st15 st21">	</tspan><tspan x="36" y="43.2" class="st2 st16 st15">    Epinephrine (use dopamine if epinephrine is not available) </tspan><tspan x="0" y="57.6" class="st2 st16 st15 st21">	</tspan><tspan x="36" y="57.6" class="st2 st14 st15">–  Warm extremities, “flash” capillary refill, and/or low (typically diastolic) blood pressure: </tspan><tspan x="0" y="72" class="st2 st16 st15 st21">	</tspan><tspan x="36" y="72" class="st2 st16 st15">    Norepinephrine (use higher dose of dopamine if norepinephrine is not available)</tspan></text>
		<text transform="matrix(1 0 0 1 338.0055 590.4829)"><tspan x="0" y="0" class="st2 st14 st15">• </tspan><tspan x="7.6" y="0" class="st2 st16 st15">Establish central venous and intra-arterial pressure monitoring </tspan><tspan x="0" y="14.4" class="st2 st14 st15">• </tspan><tspan x="7.6" y="14.4" class="st2 st16 st15">Continue epinephrine/norepinephrine (as above) and bolus fluid therapy as needed to treat shock </tspan><tspan x="0" y="28.8" class="st2 st14 st15">• </tspan><tspan x="7.6" y="28.8" class="st2 st16 st15">Verify adequate airway, oxygenation, and ventilation </tspan><tspan x="0" y="43.2" class="st2 st14 st15">•</tspan><tspan x="4.5" y="43.2" class="st2 st16 st15"> Evaluate cortisol if at risk for relative adrenal insufficiency; consider stress-dose hydrocortisone </tspan></text>
		<text transform="matrix(1 0 0 1 338.0055 650.9829)" class="st2 st14 st15">Critical care goals of therapy: </text>
		<text transform="matrix(1 0 0 1 516.9469 650.9829)" class="st2 st16 st15">Scv</text>
		<text transform="matrix(1 0 0 1 535.3903 650.9829)" class="st2 st16 st19">O</text>
		<text transform="matrix(0.583 0 0 0.583 543.1998 654.979)" class="st2 st16 st15">2</text>
		<text transform="matrix(1 0 0 1 547.2018 650.9829)" class="st2 st16 st15"> </text>
		<text transform="matrix(1 0 0 1 550.3219 650.9829)" class="st2 st22 st15">≥</text>
		<text transform="matrix(1 0 0 1 557.4733 650.9829)" class="st2 st16 st15">70%, adequate BP, normalized HR, adequate cardiac </text>
		<text transform="matrix(1 0 0 1 338.0055 665.3833)" class="st2 st16 st15">output/index and organ perfusion</text>
		<text transform="matrix(1 0 0 1 215.5 899.6677)" class="st2 st14 st15">• </text>
		<text transform="matrix(1 0 0 1 223.1318 899.6677)" class="st2 st16 st15">Provide additional fluid boluses as needed  </text>
		<text transform="matrix(1 0 0 1 215.5 914.0681)" class="st2 st14 st15">• </text>
		<text transform="matrix(1 0 0 1 223.1318 914.0681)" class="st2 st16 st15">Transfuse if Hgb &lt;10 g/dL </text>
		<text transform="matrix(1 0 0 1 215.5 928.4675)" class="st2 st14 st15">• </text>
		<text transform="matrix(1 0 0 1 223.1318 928.4675)" class="st2 st16 st15">Continue epinephrine therapy </text>
		<text transform="matrix(1 0 0 1 215.5 942.8679)" class="st2 st14 st15">• If BP low:</text>
		<text transform="matrix(1 0 0 1 279.063 942.8679)" class="st2 st16 st15"> Add norepinephrine if diastolic BP low; </text>
		<text transform="matrix(1 0 0 1 215.5 957.2673)" class="st2 st16 st15">  consider additional inotropic and </text>
		<text transform="matrix(1 0 0 1 215.5 971.6677)" class="st2 st16 st15">  vasoactive drug therapy as needed </text>
		<text transform="matrix(1 0 0 1 215.5 986.0681)" class="st2 st14 st15">• If BP adequate:</text>
		<text transform="matrix(1 0 0 1 314.6665 986.0681)" class="st2 st16 st15"> Add milrinone and/or additional </text>
		<text transform="matrix(1 0 0 1 215.5 1000.4675)" class="st2 st16 st15">  vasodilator therapy; consider adding inotropic drug </text>
		<text transform="matrix(1 0 0 1 215.5 1014.8679)" class="st2 st14 st15">• </text>
		<text transform="matrix(1 0 0 1 223.1318 1014.8679)" class="st2 st16 st15">Support organ function </text>
		<text transform="matrix(1 0 0 1 215.5 1029.2673)" class="st2 st14 st15">Goals of care:</text>
		<text transform="matrix(1 0 0 1 296.1748 1029.2673)" class="st2 st16 st15"> Improved Scv</text>
		<text transform="matrix(1 0 0 1 375.9858 1029.2673)" class="st2 st16 st19">O</text>
		<text transform="matrix(0.583 0 0 0.583 383.7954 1033.2634)" class="st2 st16 st15">2</text>
		<text transform="matrix(1 0 0 1 387.7974 1029.2673)" class="st2 st16 st15">, normalized HR and BP, </text>
		<text transform="matrix(1 0 0 1 215.5 1043.6677)" class="st2 st16 st15">adequate cardiac output/index and organ perfusion</text>
		<text transform="matrix(1 0 0 1 566 899.6677)" class="st2 st14 st15">• </text>
		<text transform="matrix(1 0 0 1 573.6318 899.6677)" class="st2 st16 st15">Provide additional fluid boluses as needed </text>
		<text transform="matrix(1 0 0 1 566 914.0681)" class="st2 st14 st15">• </text>
		<text transform="matrix(1 0 0 1 573.6318 914.0681)" class="st2 st16 st15">Continue norepinephrine therapy </text>
		<text transform="matrix(1 0 0 1 566 928.4675)" class="st2 st14 st15">• </text>
		<text transform="matrix(1 0 0 1 573.6318 928.4675)" class="st2 st16 st15">Add additional vasopressor therapy </text>
		<text transform="matrix(1 0 0 1 566 942.8679)" class="st2 st16 st15">  and inotropic therapy as needed </text>
		<text transform="matrix(1 0 0 1 566 957.2673)" class="st2 st14 st15">• </text>
		<text transform="matrix(1 0 0 1 573.6318 957.2673)" class="st2 st16 st15">Support organ function </text>
		<text transform="matrix(1 0 0 1 566 971.6677)" class="st2 st14 st15">Goals of care: </text>
		<text transform="matrix(1 0 0 1 649.7949 971.6677)" class="st2 st16 st15">Improved Scv</text>
		<text transform="matrix(1 0 0 1 726.4854 971.6677)" class="st2 st16 st19">O</text>
		<text transform="matrix(0.583 0 0 0.583 734.2959 975.6638)" class="st2 st16 st15">2</text>
		<text transform="matrix(1 0 0 1 738.2969 971.6677)" class="st2 st16 st15">, </text>
		<text transform="matrix(1 0 0 1 566 986.0681)" class="st2 st16 st15">normalized HR and BP, adequate </text>
		<text transform="matrix(1 0 0 1 566 1000.4675)" class="st2 st16 st15">cardiac output/index and organ perfusion</text>
		<text transform="matrix(1 0 0 1 862.8333 899.6677)"><tspan x="0" y="0" class="st2 st14 st15">• </tspan><tspan x="7.6" y="0" class="st2 st16 st15">Monitor in ICU</tspan><tspan x="0" y="14.4" class="st2 st14 st15">• </tspan><tspan x="7.6" y="14.4" class="st2 st16 st15">Support organ function </tspan><tspan x="0" y="28.8" class="st2 st14 st15">• </tspan><tspan x="7.6" y="28.8" class="st2 st16 st15">Treat infection source </tspan><tspan x="0" y="43.2" class="st2 st14 st15">•</tspan><tspan x="4.5" y="43.2" class="st2 st16 st15"> Evaluate septic shock </tspan><tspan x="0" y="57.6" class="st2 st16 st15">   prevention, detection,  </tspan><tspan x="0" y="72" class="st2 st16 st15">   and therapy</tspan></text>
		<text transform="matrix(1 0 0 1 62.1074 278.5041)" class="st2 st14 st15">First hour</text>
		<text transform="matrix(1 0 0 1 118.5 543)" class="st2 st16 st15">Initial stabilization</text>
		<text transform="matrix(1 0 0 1 118 576.167)"><tspan x="0" y="0" class="st2 st16 st15">Therapies below this line </tspan><tspan x="0" y="14.4" class="st2 st16 st15">are intended for critical </tspan><tspan x="0" y="28.8" class="st2 st16 st15">care environment </tspan><tspan x="0" y="43.2" class="st2 st16 st15">and expertise</tspan></text>
		<path id="shape06_83_" class="st10" d="M668.2,205.5h-120c-8.3,0-15-6.8-15-15v0c0-8.3,6.8-15,15-15h120c8.3,0,15,6.8,15,15v0
			C683.2,198.8,676.5,205.5,668.2,205.5z"/>
		<circle class="st23" cx="573.2" cy="493.5" r="15"/>
		<circle class="st23" cx="441.2" cy="725.1" r="15"/>
		<circle class="st23" cx="788.3" cy="725.1" r="15"/>
		<text transform="matrix(1 0 0 1 542.7966 195.1269)"><tspan x="0" y="0" class="st2 st14 st15">Immediate</tspan><tspan x="66.1" y="0" class="st2 st16 st15"> (10-15 min) </tspan></text>
		<text transform="matrix(1 0 0 1 562.8034 498.1238)" class="st14 st15">YES</text>
		<text transform="matrix(1 0 0 1 430.8123 729.8098)" class="st14 st15">YES</text>
		<text transform="matrix(1 0 0 1 777.8835 729.8099)" class="st14 st15">YES</text>
		<circle class="st23" cx="367.5" cy="751.4" r="15"/>
		<circle class="st23" cx="362.1" cy="493.5" r="15"/>
		<circle class="st23" cx="691.1" cy="751.4" r="15"/>
		<text transform="matrix(1 0 0 1 352.4922 498.1237)" class="st14 st15">NO</text>
		<text transform="matrix(1 0 0 1 357.8192 756.0195)" class="st14 st15">NO</text>
		<text transform="matrix(1 0 0 1 681.4728 756.0195)" class="st14 st15">NO</text>
	</g>
</g>
</svg>
